[gd_scene load_steps=3 format=2]

[ext_resource path="res://game.tscn" type="PackedScene" id=1]
[ext_resource path="res://Menu.tscn" type="PackedScene" id=2]

[node name="Node2D" type="Node2D"]

[node name="Menu" parent="." instance=ExtResource( 2 )]

[node name="game" parent="." instance=ExtResource( 1 )]
